{
  "contacts": [
    {
      "page": 1,
      "per_page": 10,
      "total": 20,
      "total_pages": 2,
      "data": [
        {
          "id": "RjQ9HGpc/WzGuQkCm9C9JAoimFZMCZWsm7jOh/PJQq8=",
          "name": "Sianna Jenny",
          "sm_id": "one",
          "email": "sjenny0@businesswire.com",
          "contact_id": 1,
          "company_id": "two",
          "avatar_url": "https://robohash.org/veroquisesse.png?size=50x50&set=set1"
        },
        {
          "id": "RjQ9HGpc/WzGuQkCm9C9JAoimFZMCZWsm7jOh/PJQq8=",
          "name": "Berthe Colicot",
          "sm_id": "one",
          "email": "bcolicot1@hostgator.com",
          "contact_id": 2,
          "company_id": "two",
          "avatar_url": "https://robohash.org/rerumofficiaalias.png?size=50x50&set=set1"
        },
        {
          "id": "2+gRtcb5tg4K0Ofh5ivnkMeCUA1VtHM3qFtddVqwdZk=",
          "name": "Worthington Attewill",
          "sm_id": "one",
          "email": "wattewill2@cyberchimps.com",
          "contact_id": 3,
          "company_id": "two",
          "avatar_url": "https://robohash.org/fugiatmagniet.png?size=50x50&set=set1"
        },
        {
          "id": "2+gRtcb5tg4K0Ofh5ivnkMeCUA1VtHM3qFtddVqwdZk=",
          "name": "Jorie Chessill",
          "sm_id": "one",
          "email": "jchessill3@aboutads.info",
          "contact_id": 4,
          "company_id": "two",
          "avatar_url": "https://robohash.org/etetnam.png?size=50x50&set=set1"
        },
        {
          "id": "2+gRtcb5tg4K0Ofh5ivnkMeCUA1VtHM3qFtddVqwdZk=",
          "name": "Aloise Linfitt",
          "sm_id": "one",
          "email": "alinfitt4@nih.gov",
          "contact_id": 5,
          "company_id": "two",
          "avatar_url": "https://robohash.org/autemutcorrupti.png?size=50x50&set=set1"
        },
        {
          "id": "RjQ9HGpc/WzGuQkCm9C9JAoimFZMCZWsm7jOh/PJQq8=",
          "name": "Hermine McBoyle",
          "sm_id": "one",
          "email": "hmcboyle5@irs.gov",
          "contact_id": 6,
          "company_id": "two",
          "avatar_url": "https://robohash.org/velitautblanditiis.png?size=50x50&set=set1"
        },
        {
          "id": "RjQ9HGpc/WzGuQkCm9C9JAoimFZMCZWsm7jOh/PJQq8=",
          "name": "Winifred O'Breen",
          "sm_id": "one",
          "email": "wobreen6@webmd.com",
          "contact_id": 7,
          "company_id": "two",
          "avatar_url": "https://robohash.org/aliquamsintpraesentium.png?size=50x50&set=set1"
        },
        {
          "id": "glty49efnDfQZkQXBoGQ5x4Xarw1Zz3FXNDQ8y6qZQo=",
          "name": "Yelena Hattoe",
          "sm_id": "one",
          "email": "yhattoe7@slate.com",
          "contact_id": 8,
          "company_id": "two",
          "avatar_url": "https://robohash.org/dolorconsequaturdebitis.png?size=50x50&set=set1"
        },
        {
          "id": "RjQ9HGpc/WzGuQkCm9C9JAoimFZMCZWsm7jOh/PJQq8=",
          "name": "Arel Ruff",
          "sm_id": "one",
          "email": "aruff8@csmonitor.com",
          "contact_id": 9,
          "company_id": "two",
          "avatar_url": "https://robohash.org/magnamanimidolorem.png?size=50x50&set=set1"
        },
        {
          "id": "2+gRtcb5tg4K0Ofh5ivnkMeCUA1VtHM3qFtddVqwdZk=",
          "name": "Lenard Jaulmes",
          "sm_id": "one",
          "email": "ljaulmes9@baidu.com",
          "contact_id": 10,
          "company_id": "two",
          "avatar_url": "https://robohash.org/hicvoluptasquia.png?size=50x50&set=set1"
        }
      ]
    },
    {
      "page": 2,
      "per_page": 10,
      "total": 20,
      "total_pages": 2,
      "data": [
        {
          "id": "RjQ9HGpc/WzGuQkCm9C9JAoimFZMCZWsm7jOh/PJQq8=",
          "name": "Sianna Jenny",
          "sm_id": "one",
          "email": "sjenny0@businesswire.com",
          "contact_id": 1,
          "company_id": "two",
          "avatar_url": "https://robohash.org/veroquisesse.png?size=50x50&set=set1"
        },
        {
          "id": "RjQ9HGpc/WzGuQkCm9C9JAoimFZMCZWsm7jOh/PJQq8=",
          "name": "Berthe Colicot",
          "sm_id": "one",
          "email": "bcolicot1@hostgator.com",
          "contact_id": 2,
          "company_id": "two",
          "avatar_url": "https://robohash.org/rerumofficiaalias.png?size=50x50&set=set1"
        },
        {
          "id": "2+gRtcb5tg4K0Ofh5ivnkMeCUA1VtHM3qFtddVqwdZk=",
          "name": "Worthington Attewill",
          "sm_id": "one",
          "email": "wattewill2@cyberchimps.com",
          "contact_id": 3,
          "company_id": "two",
          "avatar_url": "https://robohash.org/fugiatmagniet.png?size=50x50&set=set1"
        },
        {
          "id": "2+gRtcb5tg4K0Ofh5ivnkMeCUA1VtHM3qFtddVqwdZk=",
          "name": "Jorie Chessill",
          "sm_id": "one",
          "email": "jchessill3@aboutads.info",
          "contact_id": 4,
          "company_id": "two",
          "avatar_url": "https://robohash.org/etetnam.png?size=50x50&set=set1"
        },
        {
          "id": "2+gRtcb5tg4K0Ofh5ivnkMeCUA1VtHM3qFtddVqwdZk=",
          "name": "Aloise Linfitt",
          "sm_id": "one",
          "email": "alinfitt4@nih.gov",
          "contact_id": 5,
          "company_id": "two",
          "avatar_url": "https://robohash.org/autemutcorrupti.png?size=50x50&set=set1"
        },
        {
          "id": "RjQ9HGpc/WzGuQkCm9C9JAoimFZMCZWsm7jOh/PJQq8=",
          "name": "Hermine McBoyle",
          "sm_id": "one",
          "email": "hmcboyle5@irs.gov",
          "contact_id": 6,
          "company_id": "two",
          "avatar_url": "https://robohash.org/velitautblanditiis.png?size=50x50&set=set1"
        },
        {
          "id": "RjQ9HGpc/WzGuQkCm9C9JAoimFZMCZWsm7jOh/PJQq8=",
          "name": "Winifred O'Breen",
          "sm_id": "one",
          "email": "wobreen6@webmd.com",
          "contact_id": 7,
          "company_id": "two",
          "avatar_url": "https://robohash.org/aliquamsintpraesentium.png?size=50x50&set=set1"
        },
        {
          "id": "glty49efnDfQZkQXBoGQ5x4Xarw1Zz3FXNDQ8y6qZQo=",
          "name": "Yelena Hattoe",
          "sm_id": "one",
          "email": "yhattoe7@slate.com",
          "contact_id": 8,
          "company_id": "two",
          "avatar_url": "https://robohash.org/dolorconsequaturdebitis.png?size=50x50&set=set1"
        },
        {
          "id": "RjQ9HGpc/WzGuQkCm9C9JAoimFZMCZWsm7jOh/PJQq8=",
          "name": "Arel Ruff",
          "sm_id": "one",
          "email": "aruff8@csmonitor.com",
          "contact_id": 9,
          "company_id": "two",
          "avatar_url": "https://robohash.org/magnamanimidolorem.png?size=50x50&set=set1"
        },
        {
          "id": "2+gRtcb5tg4K0Ofh5ivnkMeCUA1VtHM3qFtddVqwdZk=",
          "name": "Lenard Jaulmes",
          "sm_id": "one",
          "email": "ljaulmes9@baidu.com",
          "contact_id": 10,
          "company_id": "two",
          "avatar_url": "https://robohash.org/hicvoluptasquia.png?size=50x50&set=set1"
        }
      ]
    }
  ]
}
